…
## 2.2 Extract Regression Coefficient and P-value (5 points)

Extract the regression coefficient and p-value of each term using the `broom`package.

``` r
broom::tidy(lm)
```

    ## # A tibble: 39 x 5
    ##    term                          estimate   std.error statistic       p.value
    ##    <chr>                            <dbl>       <dbl>     <dbl>         <dbl>
    ##  1 (Intercept)                 0.852      0.157           5.41  0.0000000679 
    ##  2 genreAdventure              0.00805    0.0103          0.782 0.435        
    ##  3 genreRPG                    0.00139    0.0114          0.122 0.903        
    ##  4 genreSports                -0.0379     0.0215         -1.76  0.0787       
    ##  5 genreMassively Multiplayer -0.105      0.0387         -2.72  0.00665      
    ##  6 genreOther                  0.00352    0.00776         0.454 0.650        
    ##  7 original_price             -0.000252   0.000123       -2.05  0.0400       
    ##  8 number_of_total_reviews     0.00000213 0.000000353     6.04  0.00000000173
    ##  9 release_year1989            0.0498     0.222           0.224 0.823        
    ## 10 release_year1990           -0.0317     0.172          -0.184 0.854        
    ## # ... with 29 more rows
…
