…
``` r
((publisher_categorical_review <- publishers %>% 
   mutate(category = case_when(ratio_of_postive_user_reviews < 0.25 ~ "negative",
                                 ratio_of_postive_user_reviews < 0.5~ "neutral",
                                ratio_of_postive_user_reviews < 0.75 ~ "positive",
                                 ratio_of_postive_user_reviews <= 1 ~ "very_positive"))%>%
  group_by(publisher, category) %>%
  summarise(n=n_distinct(id)) %>%
   filter(publisher %in% publisher_summary$publisher[1:20]) ## only look at the top 20 publishers on Steam
))
```

    ## `summarise()` has grouped output by 'publisher'. You can override using the `.groups` argument.

    ## # A tibble: 67 x 3
    ## # Groups:   publisher [20]
    ##    publisher        category          n
    ##    <chr>            <chr>         <int>
    ##  1 1C Entertainment neutral          10
    ##  2 1C Entertainment positive         38
    ##  3 1C Entertainment very_positive    37
    ##  4 2K               negative          1
    ##  5 2K               neutral          12
    ##  6 2K               positive         52
    ##  7 2K               very_positive    62
    ##  8 Activision       neutral          10
    ##  9 Activision       positive         25
    ## 10 Activision       very_positive    58
    ## # ... with 57 more rows
…
